DBG.c:15:13:stdout_putf	16	static
DBG.c:21:6:DBG_init	0	static
DBG.c:26:6:DBG_clear_screen	16	static
DBG.c:32:6:DBG_println	320	static
DBG.c:44:6:DBG_log_info	320	static
DBG.c:57:6:DBG_log_error	320	static
DBG.c:81:6:DBG_hexdump	24	static
DBG.c:92:6:DBG_led_set	0	static
DBG.c:97:6:DBG_led_clear	0	static
DBG.c:102:6:DBG_led_toggle	0	static
