bootloader.c:27:6:Bootloader_Init	16	static
bootloader.c:39:9:Bootloader_Erase	32	static
bootloader.c:78:6:Bootloader_FlashBegin	0	static
bootloader.c:88:9:Bootloader_FlashNext	16	static
bootloader.c:119:6:Bootloader_FlashEnd	0	static
bootloader.c:126:9:Bootloader_GetProtectionStatus	48	static
bootloader.c:211:9:Bootloader_ConfigProtection	56	static
bootloader.c:282:9:Bootloader_CheckSize	0	static
bootloader.c:288:9:Bootloader_VerifyChecksum	0	static
bootloader.c:320:9:Bootloader_CheckForApplication	0	static
bootloader.c:326:6:Bootloader_JumpToApplication	16	static
bootloader.c:347:6:Bootloader_JumpToSysMem	24	static
