main.c:212:6:SystemClock_Config	192	static
main.c:113:5:main	40	static
main.c:554:9:SD_Init	8	static
main.c:573:6:SD_DeInit	8	static
main.c:580:6:SD_Eject	0	static
main.c:339:6:Enter_Bootloader	88	static
main.c:590:6:Error_Handler	0	static
